{
	"variable" : {
		"header" : "adv-variable",
		"content" : "adv-variable-info"
	},
	"variable-type-number" : {
		"header" : "adv-var-number" ,
		"content" : "adv-var-number-info"
	},
	"variable-type-string" : {
		"header" : "adv-var-string" ,
		"content" : "adv-var-string-info"
	},
	"variable-type-boolean" : {
		"header" : "adv-var-boolean" ,
		"content" : "adv-var-boolean-info"
	},
	"directory" : {
		"header" : "adv-dir",
		"content" : "adv-dir-info"
	},
	"strategy-man" : {
		"header" : "adv-strat-man",
		"content" : "adv-strat-man-info"
	}
}